%YAML 1.1
%TAG !u! tag:unity3d.com,2011:
--- !u!114 &11400000
MonoBehaviour:
  m_ObjectHideFlags: 0
  m_CorrespondingSourceObject: {fileID: 0}
  m_PrefabInstance: {fileID: 0}
  m_PrefabAsset: {fileID: 0}
  m_GameObject: {fileID: 0}
  m_Enabled: 1
  m_EditorHideFlags: 0
  m_Script: {fileID: 11500000, guid: 17215f689fb19554ab6b81c2308113df, type: 3}
  m_Name: UIPopupLink_GuardFound
  m_EditorClassIdentifier: 
  PopupName: GuardFound
  Prefab: {fileID: 1525863946067580, guid: 1e00fa1495023a94a862e194e2406a65, type: 3}
